{
  "project_info": {
    "project_number": "947166996829",
    "firebase_url": "https://decision-jam-app.firebaseio.com",
    "project_id": "decision-jam-app",
    "storage_bucket": "decision-jam-app.appspot.com"
  },
  "client": [
    {
      "client_info": {
        "mobilesdk_app_id": "1:947166996829:android:03e023f2075ecfe7",
        "android_client_info": {
          "package_name": "de.kischiman.decisionjamapp"
        }
      },
      "oauth_client": [
        {
          "client_id": "947166996829-4tfs3fs2jadnu4dtsclpp7eqb9fvedkt.apps.googleusercontent.com",
          "client_type": 3
        }
      ],
      "api_key": [
        {
          "current_key": "AIzaSyCPzrqDWaiz0uiDXu1ZNWQsGcWzkL5u2D0"
        }
      ],
      "services": {
        "appinvite_service": {
          "other_platform_oauth_client": [
            {
              "client_id": "947166996829-4tfs3fs2jadnu4dtsclpp7eqb9fvedkt.apps.googleusercontent.com",
              "client_type": 3
            }
          ]
        }
      }
    }
  ],
  "configuration_version": "1"
}